Extract the Joint Membership of a pair of Countries across IGOs. — igo_dyadic • igoR
…
    See also

    state_year_format3,  states2016,
igo_search().

    Examples

usa_esp <- igo_dyadic("USA", "Spain")
nrow(usa_esp)
#> [1] 199
ncol(usa_esp)
#> [1] 544

dplyr::tibble(usa_esp)
#> # A tibble: 199 × 544
#>    dyadid ccode1 stateabb1 statenme1    state1 ccode2 stateabb2 statenme2 state2
#>     <dbl>  <dbl> <chr>     <chr>        <chr>   <dbl> <chr>     <chr>     <chr> 
#>  1   2230      2 USA       United Stat… usa       230 SPN       Spain     spain 
#>  2   2230      2 USA       United Stat… usa       230 SPN       Spain     spain 
#>  3   2230      2 USA       United Stat… usa       230 SPN       Spain     spain 
#>  4   2230      2 USA       United Stat… usa       230 SPN       Spain     spain 
#>  5   2230      2 USA       United Stat… usa       230 SPN       Spain     spain 
#>  6   2230      2 USA       United Stat… usa       230 SPN       Spain     spain 
#>  7   2230      2 USA       United Stat… usa       230 SPN       Spain     spain 
#>  8   2230      2 USA       United Stat… usa       230 SPN       Spain     spain 
#>  9   2230      2 USA       United Stat… usa       230 SPN       Spain     spain 
#> 10   2230      2 USA       United Stat… usa       230 SPN       Spain     spain 
#> # ℹ 189 more rows
#> # ℹ 535 more variables: year <dbl>, aaaid <dbl>, aacb <dbl>, aalco <dbl>,
#> #   aaro <dbl>, aata <dbl>, aatpo <dbl>, abeda <dbl>, abepseac <dbl>,
#> #   acc <dbl>, acct <dbl>, acdt <dbl>, aci <dbl>, acml <dbl>, acp <dbl>,
#> #   acpeu <dbl>, acs <dbl>, acso <dbl>, acssrb <dbl>, acu <dbl>, acwl <dbl>,
#> #   afesd <dbl>, afeximb <dbl>, afgec <dbl>, afpu <dbl>, afrand <dbl>,
#> #   afristat <dbl>, afspc <dbl>, afte <dbl>, agc <dbl>, agpundo <dbl>, …
…
