State System Membership (v2016) — states2016 • igoR
…
    Correlates of War Project. 2017 "State System Membership List, v2016."
Online, https://correlatesofwar.org/.

    See also

    Other datasets: 
igo_year_format3,
state_year_format3

    Examples

# example code
data("states2016")
dplyr::tibble(states2016)
#> # A tibble: 243 × 11
#>    ccode stateabb statenme  styear stmonth stday endyear endmonth endday version
#>    <int> <chr>    <chr>      <int>   <int> <int>   <int>    <int>  <int>   <int>
#>  1     2 USA      United S…   1816       1     1    2016       12     31    2016
#>  2    20 CAN      Canada      1920       1    10    2016       12     31    2016
#>  3    31 BHM      Bahamas     1973       7    10    2016       12     31    2016
#>  4    40 CUB      Cuba        1902       5    20    1906        9     25    2016
#>  5    40 CUB      Cuba        1909       1    23    2016       12     31    2016
#>  6    41 HAI      Haiti       1859       1     1    1915        7     28    2016
#>  7    41 HAI      Haiti       1934       8    15    2016       12     31    2016
#>  8    42 DOM      Dominica…   1894       1     1    1916       11     29    2016
#>  9    42 DOM      Dominica…   1924       9    29    2016       12     31    2016
#> 10    51 JAM      Jamaica     1962       8     6    2016       12     31    2016
#> # ℹ 233 more rows
#> # ℹ 1 more variable: state <chr>
…
